<?xml version="1.0" encoding="UTF-8"?>
<session version="1.0">
<refactoring comment="Rename Java project &apos;jam&apos; to &apos;JAM_1430047_1&apos;&#x0D;&#x0A;- Original element: &apos;jam&apos;&#x0D;&#x0A;- Renamed element: &apos;jam&apos;&#x0D;&#x0A;- Update references to refactored element" description="Rename Java project &apos;jam&apos;" flags="7" id="org.eclipse.jdt.ui.rename.java.project" input="=jam" name="JAM_1430047_1" references="true" stamp="1506539291158" version="1.0"/>
</session>