<?xml version="1.0" encoding="UTF-8"?>
<session version="1.0">
<refactoring comment="Rename type &apos;jephthia.jam.email.Email&apos; to &apos;EmailSender&apos;&#x0D;&#x0A;- Original project: &apos;jam&apos;&#x0D;&#x0A;- Original element: &apos;jephthia.jam.email.Email&apos;&#x0D;&#x0A;- Renamed element: &apos;jephthia.jam.email.EmailSender&apos;&#x0D;&#x0A;- Update references to refactored element&#x0D;&#x0A;- Update textual occurrences in comments and strings" description="Rename type &apos;Email&apos;" flags="589830" id="org.eclipse.jdt.ui.rename.type" input="/src\/main\/java&lt;jephthia.jam.email{Email.java[Email" matchStrategy="1" name="EmailSender" qualified="false" references="true" similarDeclarations="false" stamp="1506016020397" textual="false" version="1.0"/>
</session>